%YAML 1.1
%TAG !u! tag:unity3d.com,2011:
--- !u!1045 &1
EditorBuildSettings:
  m_ObjectHideFlags: 0
  serializedVersion: 2
  m_Scenes:
  - enabled: 1
    path: Assets/Scenes/Lobby/Lobby.unity
    guid: a31f891afa50f1f48bc50f538069d566
  - enabled: 1
    path: Assets/Scenes/Lobby/01_Bugs.unity
    guid: 2d85c5e96b6bddc44b0204f3c51487ad
  - enabled: 1
    path: Assets/Scenes/Lobby/02_Dino.unity
    guid: d1c3c7ceeac2a43409f3d296858f2300
  - enabled: 1
    path: Assets/Scenes/Lobby/03_Farm.unity
    guid: dee94287f52468342ac40255c9b67f9b
  - enabled: 1
    path: Assets/Scenes/Lobby/04_Food.unity
    guid: f55bddad47fddb94c99478669c9bd0cf
  - enabled: 1
    path: Assets/Scenes/Lobby/05_Jungle.unity
    guid: 4c68f3194578fe646bdddf47033ba047
  - enabled: 1
    path: Assets/Scenes/Lobby/06_Sea.unity
    guid: ba64bcb54785abb46981b89f3b7f671c
  - enabled: 1
    path: Assets/Scenes/Lobby/07_Space.unity
    guid: 24f15a54af7c4f74f874844add3512a1
  - enabled: 1
    path: Assets/Scenes/Lobby/08_Toys.unity
    guid: 1ff2ac01a1f8bb2439f5c5a1c6355d59
  - enabled: 1
    path: Assets/Scenes/Lobby/09_Transport.unity
    guid: a804924185ad74b4994c1e6a04a30bda
  m_configObjects: {}
