%YAML 1.1
%TAG !u! tag:unity3d.com,2011:
--- !u!114 &11400000
MonoBehaviour:
  m_ObjectHideFlags: 0
  m_CorrespondingSourceObject: {fileID: 0}
  m_PrefabInstance: {fileID: 0}
  m_PrefabAsset: {fileID: 0}
  m_GameObject: {fileID: 0}
  m_Enabled: 1
  m_EditorHideFlags: 0
  m_Script: {fileID: 11500000, guid: 6cd60aaa205dcfc44b9424933ae77750, type: 3}
  m_Name: c_Jungle
  m_EditorClassIdentifier: 
  Sprite: {fileID: 21300000, guid: 26262cf10d4705f489bc78ccaaa12557, type: 3}
  Name: Jungle
  ID: 4
  SceneBuildID: 5
